Eichhorn’s rule, the site index concept, and the development of yield levels
…
Sometimes called the ‘basic tenet’ of forestry, as we can read in Assmann (1970), Eichhorn’s rule (after Eichhorn (1904)) states that for silver fir :

“a given mean height of stand is matched by the same volume in all site classes”.

Gehrhardt (1909) found this to be true also for Norway Spruce  & Scots Pine . Gehrhardt extended the rule to apply not only to .

Given that: - There are only weak forestry operations - The volume corresponds to the  volume, i.e. including dead and harvested volume.

You can find the tables used by Gehrhardt in the forester package.

forester::Silver_fir_1921
#> # A tibble: 60 x 5
#>    Site_class   Age `Stem number` `Mean height m` `Total stem wood m3`
#>         <dbl> <dbl>         <dbl>           <dbl>                <dbl>
#>  1          1    10            NA             2.4                   12
#>  2          1    20            NA             6.5                   81
#>  3          1    30          2880            11.3                  220
#>  4          1    40          1820            16.1                  403
#>  5          1    50          1255            20.5                  605
#>  6          1    60           905            24.3                  806
#>  7          1    70           705            27.4                  991
#>  8          1    80           575            30                   1153
#>  9          1    90           490            32                   1288
#> 10          1   100           430            33.6                 1399
#> # … with 50 more rows
…
